mux/result.vcd
$date
  Wed Nov 22 09:42:09 2017
$end
$version
  GHDL v0
$end
$timescale
  1 fs
$end
$var integer 32 ! sel_num $end
$var reg 16 " switch_data[15:0] $end
$var reg 4 # switch_sel[3:0] $end
$var reg 1 $ indicator $end
$scope module mux16x1 $end
$var reg 16 % data_in[15:0] $end
$var reg 4 & sel[3:0] $end
$var reg 1 ' f $end
$var reg 31 ( internal_wire[30:0] $end
$scope module (0) $end
$scope module (0) $end
$scope module mux $end
$var reg 1 ) a $end
$var reg 1 * b $end
$var reg 1 + sel $end
$var reg 1 , f $end
$upscope $end
$upscope $end
$upscope $end
$scope module (1) $end
$scope module (0) $end
$scope module mux $end
$var reg 1 - a $end
$var reg 1 . b $end
$var reg 1 / sel $end
$var reg 1 0 f $end
$upscope $end
$upscope $end
$scope module (1) $end
$scope module mux $end
$var reg 1 1 a $end
$var reg 1 2 b $end
$var reg 1 3 sel $end
$var reg 1 4 f $end
$upscope $end
$upscope $end
$upscope $end
$scope module (2) $end
$scope module (0) $end
$scope module mux $end
$var reg 1 5 a $end
$var reg 1 6 b $end
$var reg 1 7 sel $end
$var reg 1 8 f $end
$upscope $end
$upscope $end
$scope module (1) $end
$scope module mux $end
$var reg 1 9 a $end
$var reg 1 : b $end
$var reg 1 ; sel $end
$var reg 1 < f $end
$upscope $end
$upscope $end
$scope module (2) $end
$scope module mux $end
$var reg 1 = a $end
$var reg 1 > b $end
$var reg 1 ? sel $end
$var reg 1 @ f $end
$upscope $end
$upscope $end
$scope module (3) $end
$scope module mux $end
$var reg 1 A a $end
$var reg 1 B b $end
$var reg 1 C sel $end
$var reg 1 D f $end
$upscope $end
$upscope $end
$upscope $end
$scope module (3) $end
$scope module (0) $end
$scope module mux $end
$var reg 1 E a $end
$var reg 1 F b $end
$var reg 1 G sel $end
$var reg 1 H f $end
$upscope $end
$upscope $end
$scope module (1) $end
$scope module mux $end
$var reg 1 I a $end
$var reg 1 J b $end
$var reg 1 K sel $end
$var reg 1 L f $end
$upscope $end
$upscope $end
$scope module (2) $end
$scope module mux $end
$var reg 1 M a $end
$var reg 1 N b $end
$var reg 1 O sel $end
$var reg 1 P f $end
$upscope $end
$upscope $end
$scope module (3) $end
$scope module mux $end
$var reg 1 Q a $end
$var reg 1 R b $end
$var reg 1 S sel $end
$var reg 1 T f $end
$upscope $end
$upscope $end
$scope module (4) $end
$scope module mux $end
$var reg 1 U a $end
$var reg 1 V b $end
$var reg 1 W sel $end
$var reg 1 X f $end
$upscope $end
$upscope $end
$scope module (5) $end
$scope module mux $end
$var reg 1 Y a $end
$var reg 1 Z b $end
$var reg 1 [ sel $end
$var reg 1 \ f $end
$upscope $end
$upscope $end
$scope module (6) $end
$scope module mux $end
$var reg 1 ] a $end
$var reg 1 ^ b $end
$var reg 1 _ sel $end
$var reg 1 ` f $end
$upscope $end
$upscope $end
$scope module (7) $end
$scope module mux $end
$var reg 1 a a $end
$var reg 1 b b $end
$var reg 1 c sel $end
$var reg 1 d f $end
$upscope $end
$upscope $end
$upscope $end
$scope module (15) $end
$upscope $end
$scope module (16) $end
$upscope $end
$scope module (17) $end
$upscope $end
$scope module (18) $end
$upscope $end
$scope module (19) $end
$upscope $end
$scope module (20) $end
$upscope $end
$scope module (21) $end
$upscope $end
$scope module (22) $end
$upscope $end
$scope module (23) $end
$upscope $end
$scope module (24) $end
$upscope $end
$scope module (25) $end
$upscope $end
$scope module (26) $end
$upscope $end
$scope module (27) $end
$upscope $end
$scope module (28) $end
$upscope $end
$scope module (29) $end
$upscope $end
$scope module (30) $end
$upscope $end
$upscope $end
$enddefinitions $end
#0
b100 !
b1111101011111010 "
b0000 #
0$
b1111101011111010 %
b0000 &
0'
b1111101011111010110011001010000 (
0)
0*
0+
0,
0-
1.
0/
00
01
12
03
04
05
06
07
08
19
1:
0;
1<
0=
0>
0?
0@
1A
1B
0C
1D
0E
1F
0G
0H
0I
1J
0K
0L
1M
1N
0O
1P
1Q
1R
0S
1T
0U
1V
0W
0X
0Y
1Z
0[
0\
1]
1^
0_
1`
1a
1b
0c
1d
#1000000
b0001 #
1$
b0001 &
1'
b1111101011111010111111111111111 (
1)
1*
1,
1-
10
11
14
15
16
18
1=
1>
1@
1G
1H
1K
1L
1O
1S
1W
1X
1[
1\
1_
1c
#2000000
b0010 #
0$
b0010 &
0'
b1111101011111010110011001010000 (
0)
0*
0,
0-
00
01
04
05
06
17
08
1;
0=
0>
1?
0@
1C
0G
0H
0K
0L
0O
0S
0W
0X
0[
0\
0_
0c
#3000000
b0011 #
1$
b0011 &
1'
b1111101011111010111111111111111 (
1)
1*
1,
1-
10
11
14
15
16
18
1=
1>
1@
1G
1H
1K
1L
1O
1S
1W
1X
1[
1\
1_
1c
#4000000
b0100 #
b0100 &
b1111101011111010110011001010111 (
0-
1/
01
13
05
06
07
08
0;
0=
0>
0?
0@
0C
0G
0H
0K
0L
0O
0S
0W
0X
0[
0\
0_
0c
#5000000
b0101 #
b0101 &
b1111101011111010111111111111111 (
1-
11
15
16
18
1=
1>
1@
1G
1H
1K
1L
1O
1S
1W
1X
1[
1\
1_
1c
#6000000
b0110 #
b0110 &
b1111101011111010110011001010111 (
0-
01
05
06
17
08
1;
0=
0>
1?
0@
1C
0G
0H
0K
0L
0O
0S
0W
0X
0[
0\
0_
0c
#7000000
b0111 #
b0111 &
b1111101011111010111111111111111 (
1-
11
15
16
18
1=
1>
1@
1G
1H
1K
1L
1O
1S
1W
1X
1[
1\
1_
1c
#8000000
b1000 #
0$
b1000 &
0'
b1111101011111010110011001010000 (
0)
0*
1+
0,
0-
0/
00
01
03
04
05
06
07
08
0;
0=
0>
0?
0@
0C
0G
0H
0K
0L
0O
0S
0W
0X
0[
0\
0_
0c
#9000000
b1001 #
1$
b1001 &
1'
b1111101011111010111111111111111 (
1)
1*
1,
1-
10
11
14
15
16
18
1=
1>
1@
1G
1H
1K
1L
1O
1S
1W
1X
1[
1\
1_
1c
#10000000
b1010 #
0$
b1010 &
0'
b1111101011111010110011001010000 (
0)
0*
0,
0-
00
01
04
05
06
17
08
1;
0=
0>
1?
0@
1C
0G
0H
0K
0L
0O
0S
0W
0X
0[
0\
0_
0c
#11000000
b1011 #
1$
b1011 &
1'
b1111101011111010111111111111111 (
1)
1*
1,
1-
10
11
14
15
16
18
1=
1>
1@
1G
1H
1K
1L
1O
1S
1W
1X
1[
1\
1_
1c
#12000000
b1100 #
b1100 &
b1111101011111010110011001010111 (
0-
1/
01
13
05
06
07
08
0;
0=
0>
0?
0@
0C
0G
0H
0K
0L
0O
0S
0W
0X
0[
0\
0_
0c
#13000000
b1101 #
b1101 &
b1111101011111010111111111111111 (
1-
11
15
16
18
1=
1>
1@
1G
1H
1K
1L
1O
1S
1W
1X
1[
1\
1_
1c
#14000000
b1110 #
b1110 &
b1111101011111010110011001010111 (
0-
01
05
06
17
08
1;
0=
0>
1?
0@
1C
0G
0H
0K
0L
0O
0S
0W
0X
0[
0\
0_
0c
#15000000
b1111 #
b1111 &
b1111101011111010111111111111111 (
1-
11
15
16
18
1=
1>
1@
1G
1H
1K
1L
1O
1S
1W
1X
1[
1\
1_
1c
