instr_mem-structural/result.vcd
$date
  Thu Nov 23 18:59:52 2017
$end
$version
  GHDL v0
$end
$timescale
  1 fs
$end
$var reg 32 ! switch[31:0] $end
$var reg 32 " indicator[31:0] $end
$scope module rom $end
$var reg 32 # addr[31:0] $end
$var reg 32 $ instruction[31:0] $end
$var reg 32 % dec_line[31:0] $end
$scope module decoder5x32_u $end
$var reg 5 & a[4:0] $end
$var reg 32 ' d[31:0] $end
$var reg 1 ( enable $end
$upscope $end
$upscope $end
$enddefinitions $end
#0
b00000000000000000000000000000000 !
b10001100000100010000000000000000 "
b00000000000000000000000000000000 #
b10001100000100010000000000000000 $
b00000000000000000000000000000001 %
b00000 &
b00000000000000000000000000000001 '
1(
#1000000
b00000000000000000000000000000100 !
b10001100000100100000000000000100 "
b00000000000000000000000000000100 #
b10001100000100100000000000000100 $
b00000000000000000000000000000010 %
b00001 &
b00000000000000000000000000000010 '
#2000000
b00000000000000000000000000001000 !
b00000000000100011001100000100101 "
b00000000000000000000000000001000 #
b00000000000100011001100000100101 $
b00000000000000000000000000000100 %
b00010 &
b00000000000000000000000000000100 '
#3000000
b00000000000000000000000000001100 !
b00000000000100010100000000100101 "
b00000000000000000000000000001100 #
b00000000000100010100000000100101 $
b00000000000000000000000000001000 %
b00011 &
b00000000000000000000000000001000 '
#4000000
b00000000000000000000000000010000 !
b00010000000000000000000000001001 "
b00000000000000000000000000010000 #
b00010000000000000000000000001001 $
b00000000000000000000000000010000 %
b00100 &
b00000000000000000000000000010000 '
#5000000
b00000000000000000000000000010100 !
b00000000000100010100100000100101 "
b00000000000000000000000000010100 #
b00000000000100010100100000100101 $
b00000000000000000000000000100000 %
b00101 &
b00000000000000000000000000100000 '
#6000000
b00000000000000000000000000011000 !
b00010000000000000000000000000010 "
b00000000000000000000000000011000 #
b00010000000000000000000000000010 $
b00000000000000000000000001000000 %
b00110 &
b00000000000000000000000001000000 '
#7000000
b00000000000000000000000000011100 !
b00000001010100110101000000100000 "
b00000000000000000000000000011100 #
b00000001010100110101000000100000 $
b00000000000000000000000010000000 %
b00111 &
b00000000000000000000000010000000 '
#8000000
b00000000000000000000000000100000 !
b00000001001100010100100000100000 "
b00000000000000000000000000100000 #
b00000001001100010100100000100000 $
b00000000000000000000000100000000 %
b01000 &
b00000000000000000000000100000000 '
#9000000
b00000000000000000000000000100100 !
b00000001000010010000100000101010 "
b00000000000000000000000000100100 #
b00000001000010010000100000101010 $
b00000000000000000000001000000000 %
b01001 &
b00000000000000000000001000000000 '
#10000000
b00000000000000000000000000101000 !
b00010000001000001111111111111100 "
b00000000000000000000000000101000 #
b00010000001000001111111111111100 $
b00000000000000000000010000000000 %
b01010 &
b00000000000000000000010000000000 '
#11000000
b00000000000000000000000000101100 !
b00000000000010101001100000100101 "
b00000000000000000000000000101100 #
b00000000000010101001100000100101 $
b00000000000000000000100000000000 %
b01011 &
b00000000000000000000100000000000 '
#12000000
b00000000000000000000000000110000 !
b00000000000010100101000000100100 "
b00000000000000000000000000110000 #
b00000000000010100101000000100100 $
b00000000000000000001000000000000 %
b01100 &
b00000000000000000001000000000000 '
#13000000
b00000000000000000000000000110100 !
b00000001000100010100000000100000 "
b00000000000000000000000000110100 #
b00000001000100010100000000100000 $
b00000000000000000010000000000000 %
b01101 &
b00000000000000000010000000000000 '
#14000000
b00000000000000000000000000111000 !
b00000010010010000000100000101010 "
b00000000000000000000000000111000 #
b00000010010010000000100000101010 $
b00000000000000000100000000000000 %
b01110 &
b00000000000000000100000000000000 '
#15000000
b00000000000000000000000000111100 !
b00010000001000001111111111110101 "
b00000000000000000000000000111100 #
b00010000001000001111111111110101 $
b00000000000000001000000000000000 %
b01111 &
b00000000000000001000000000000000 '
#16000000
b00000000000000000000000001000000 !
b10101100000100110000000000001000 "
b00000000000000000000000001000000 #
b10101100000100110000000000001000 $
b00000000000000010000000000000000 %
b10000 &
b00000000000000010000000000000000 '
#17000000
b00000000000000000000000001000100 !
b00000000000000000000000000000000 "
b00000000000000000000000001000100 #
b00000000000000000000000000000000 $
b00000000000000100000000000000000 %
b10001 &
b00000000000000100000000000000000 '
#18000000
b00000000000000000000000001001000 !
b00000000000000000000000001001000 #
b00000000000001000000000000000000 %
b10010 &
b00000000000001000000000000000000 '
#19000000
b00000000000000000000000001001100 !
b00000000000000000000000001001100 #
b00000000000010000000000000000000 %
b10011 &
b00000000000010000000000000000000 '
#20000000
b00000000000000000000000001010000 !
b00000000000000000000000001010000 #
b00000000000100000000000000000000 %
b10100 &
b00000000000100000000000000000000 '
#21000000
b00000000000000000000000001010100 !
b00000000000000000000000001010100 #
b00000000001000000000000000000000 %
b10101 &
b00000000001000000000000000000000 '
#22000000
b00000000000000000000000001011000 !
b00000000000000000000000001011000 #
b00000000010000000000000000000000 %
b10110 &
b00000000010000000000000000000000 '
#23000000
b00000000000000000000000001011100 !
b00000000000000000000000001011100 #
b00000000100000000000000000000000 %
b10111 &
b00000000100000000000000000000000 '
#24000000
b00000000000000000000000001100000 !
b00000000000000000000000001100000 #
b00000001000000000000000000000000 %
b11000 &
b00000001000000000000000000000000 '
#25000000
b00000000000000000000000001100100 !
b00000000000000000000000001100100 #
b00000010000000000000000000000000 %
b11001 &
b00000010000000000000000000000000 '
#26000000
b00000000000000000000000001101000 !
b00000000000000000000000001101000 #
b00000100000000000000000000000000 %
b11010 &
b00000100000000000000000000000000 '
#27000000
b00000000000000000000000001101100 !
b00000000000000000000000001101100 #
b00001000000000000000000000000000 %
b11011 &
b00001000000000000000000000000000 '
#28000000
b00000000000000000000000001110000 !
b00000000000000000000000001110000 #
b00010000000000000000000000000000 %
b11100 &
b00010000000000000000000000000000 '
#29000000
b00000000000000000000000001110100 !
b00000000000000000000000001110100 #
b00100000000000000000000000000000 %
b11101 &
b00100000000000000000000000000000 '
#30000000
b00000000000000000000000001111000 !
b00000000000000000000000001111000 #
b01000000000000000000000000000000 %
b11110 &
b01000000000000000000000000000000 '
#31000000
b00000000000000000000000001111100 !
b00000000000000000000000001111100 #
b10000000000000000000000000000000 %
b11111 &
b10000000000000000000000000000000 '
