instr_mem-structural/testbench.vcd
$date
  Tue Jul  3 09:49:09 2018
$end
$version
  GHDL v0
$end
$timescale
  1 fs
$end
$var reg 32 ! switch[31:0] $end
$var reg 32 " indicator[31:0] $end
$scope module rom $end
$var reg 32 # addr[31:0] $end
$var reg 32 $ instruction[31:0] $end
$var reg 32 % dec_line[31:0] $end
$scope module decoder5x32_u $end
$var reg 5 & a[4:0] $end
$var reg 32 ' d[31:0] $end
$var reg 1 ( enable $end
$upscope $end
$upscope $end
$enddefinitions $end
#0
b00000000000000000000000000000000 !
b10001100000100010000000000000000 "
b00000000000000000000000000000000 #
b10001100000100010000000000000000 $
b00000000000000000000000000000001 %
b00000 &
b00000000000000000000000000000001 '
1(
#1000000
b00000000000000000000000000000100 !
b10001100000100100000000000000100 "
b00000000000000000000000000000100 #
b10001100000100100000000000000100 $
b00000000000000000000000000000010 %
b00001 &
b00000000000000000000000000000010 '
#2000000
b00000000000000000000000000001000 !
b00000000000100011001100000100101 "
b00000000000000000000000000001000 #
b00000000000100011001100000100101 $
b00000000000000000000000000000100 %
b00010 &
b00000000000000000000000000000100 '
#3000000
b00000000000000000000000000001100 !
b00000000000100010100000000100101 "
b00000000000000000000000000001100 #
b00000000000100010100000000100101 $
b00000000000000000000000000001000 %
b00011 &
b00000000000000000000000000001000 '
#4000000
b00000000000000000000000000010000 !
b00010000000000000000000000001001 "
b00000000000000000000000000010000 #
b00010000000000000000000000001001 $
b00000000000000000000000000010000 %
b00100 &
b00000000000000000000000000010000 '
#5000000
b00000000000000000000000000010100 !
b00000000000100010100100000100101 "
b00000000000000000000000000010100 #
b00000000000100010100100000100101 $
b00000000000000000000000000100000 %
b00101 &
b00000000000000000000000000100000 '
#6000000
b00000000000000000000000000011000 !
b00010000000000000000000000000010 "
b00000000000000000000000000011000 #
b00010000000000000000000000000010 $
b00000000000000000000000001000000 %
b00110 &
b00000000000000000000000001000000 '
#7000000
b00000000000000000000000000011100 !
b00000001010100110101000000100000 "
b00000000000000000000000000011100 #
b00000001010100110101000000100000 $
b00000000000000000000000010000000 %
b00111 &
b00000000000000000000000010000000 '
